<?xml version="1.0" standalone="no"?>
<!DOCTYPE svg PUBLIC "-//W3C//DTD SVG 20010904//EN"
 "http://www.w3.org/TR/2001/REC-SVG-20010904/DTD/svg10.dtd">
<svg version="1.0" xmlns="http://www.w3.org/2000/svg"
 width="30px" height="30px" viewBox="0 0 1280.000000 720.000000"
 preserveAspectRatio="xMidYMid meet">
<metadata>
Created by potrace 1.15, written by Peter Selinger 2001-2017
</metadata>
<g transform="translate(0.000000,720.000000) scale(0.100000,-0.100000)"
fill="#ffffff" stroke="none">
<path d="M6086 6771 c-3 -4 3 -19 14 -31 11 -13 20 -29 20 -37 0 -7 7 -16 15
-19 12 -5 11 -9 -7 -24 -20 -16 -21 -20 -8 -35 10 -12 26 -16 62 -13 27 2 48
-1 48 -7 0 -5 4 -4 9 3 6 10 10 10 21 -3 16 -20 84 -20 100 0 10 12 10 18 0
30 -10 12 -10 15 2 15 7 0 25 12 39 28 14 15 34 32 44 39 16 10 17 14 6 21
-17 12 -80 -2 -131 -28 -51 -26 -69 -25 -111 6 -32 24 -103 64 -113 64 -3 0
-7 -4 -10 -9z"/>
<path d="M10488 5970 c-62 -11 -176 -73 -243 -133 -68 -60 -109 -141 -99 -193
4 -23 3 -39 -5 -43 -16 -10 4 -159 24 -181 9 -10 13 -25 9 -34 -5 -12 0 -19
15 -23 14 -3 20 -11 17 -20 -3 -7 0 -13 7 -12 32 4 34 -1 26 -47 -10 -55 -9
-59 36 -80 19 -9 32 -20 29 -25 -5 -8 9 -41 27 -63 35 -44 101 -138 98 -140
-2 -2 -42 -16 -89 -32 -74 -24 -103 -28 -225 -31 -127 -2 -145 -5 -190 -28
-28 -14 -76 -30 -106 -37 -52 -11 -59 -10 -94 11 l-38 22 -26 -20 c-35 -28
-68 -42 -116 -48 -43 -5 -120 -31 -174 -59 -25 -12 -63 -18 -140 -20 -85 -1
-121 -7 -184 -29 -55 -19 -87 -25 -110 -20 -89 18 -114 17 -170 -9 -48 -22
-60 -23 -93 -14 -56 15 -137 2 -223 -36 -58 -26 -85 -32 -114 -29 -48 7 -120
-13 -172 -46 -35 -22 -52 -25 -126 -26 l-87 0 -88 -60 c-127 -86 -245 -198
-268 -254 -69 -169 -65 -152 -57 -258 9 -114 14 -128 42 -113 12 7 19 20 18
38 -1 15 11 52 27 82 20 40 27 68 26 102 -1 45 1 48 46 81 39 28 122 56 122
42 0 -2 -11 -25 -25 -51 -30 -56 -32 -84 -7 -84 10 0 22 -3 25 -6 13 -13 -29
-67 -76 -99 -74 -50 -145 -122 -165 -168 -22 -49 -49 -75 -88 -86 -18 -4 -50
-32 -83 -72 -29 -35 -86 -100 -125 -144 -40 -44 -76 -92 -79 -107 -12 -46 -62
-94 -114 -108 -25 -8 -60 -25 -77 -40 -17 -15 -60 -46 -96 -70 -36 -24 -81
-56 -100 -70 -19 -15 -59 -44 -88 -66 -29 -21 -68 -61 -87 -89 -18 -27 -60
-76 -92 -107 -48 -47 -70 -61 -127 -79 -49 -15 -82 -19 -112 -14 -36 5 -44 3
-53 -14 -12 -22 -1 -64 20 -76 13 -8 -52 -35 -85 -35 -12 0 -16 -3 -10 -9 19
-17 134 -32 274 -35 95 -3 164 -9 200 -20 30 -9 79 -20 108 -26 30 -5 61 -11
70 -14 10 -3 57 -8 106 -11 49 -3 94 -8 98 -11 5 -3 50 -8 101 -10 101 -4 189
-18 215 -33 14 -9 11 -10 -15 -11 -42 0 -41 -9 2 -51 19 -19 35 -38 35 -42 0
-17 53 -77 84 -95 50 -31 147 -50 361 -71 325 -32 335 -33 410 -18 39 7 81 11
95 10 41 -5 173 -15 205 -16 17 0 71 5 120 11 50 7 117 12 151 12 50 0 66 4
87 24 33 31 189 52 315 42 61 -5 113 -2 174 8 48 9 145 20 215 26 70 5 131 14
136 19 13 13 -15 51 -38 52 -11 0 14 7 56 15 196 35 343 142 424 307 47 98 61
160 70 312 10 177 50 303 124 387 15 18 40 58 55 90 34 72 90 123 158 143 42
12 79 37 181 124 273 234 303 264 333 344 26 68 43 91 108 144 l27 22 10 -25
c6 -18 5 -34 -4 -52 -15 -33 -38 -35 -53 -3 -12 23 -12 23 -19 -10 -5 -19 -8
-83 -8 -144 1 -93 6 -133 37 -254 22 -88 39 -188 45 -260 8 -98 17 -136 55
-245 25 -72 57 -146 70 -166 13 -20 35 -68 50 -108 32 -90 59 -144 82 -163 32
-26 64 -111 64 -169 1 -77 15 -132 41 -152 21 -18 20 -18 -47 -19 l-69 -1 63
-15 c46 -11 62 -18 58 -28 -3 -10 6 -17 32 -22 l37 -8 -45 -5 c-76 -9 202 -31
294 -24 72 7 76 8 50 19 l-29 12 32 7 c17 4 58 2 90 -4 81 -16 143 -10 157 15
15 28 27 35 57 35 14 0 34 9 45 21 16 17 16 22 4 29 -8 6 -33 10 -55 10 -58 0
-85 10 -85 30 0 13 -11 19 -46 24 -25 3 -65 14 -88 25 -23 10 -64 21 -90 25
-42 7 -48 5 -43 -8 5 -13 -1 -16 -26 -16 -30 1 -31 2 -13 15 17 13 14 14 -30
17 l-48 3 -38 152 c-26 107 -42 204 -53 325 -21 229 -31 284 -73 403 -19 55
-38 127 -42 160 -6 55 -7 58 -17 34 -20 -46 -76 -53 -119 -15 -26 22 -27 25
-14 56 31 74 87 92 120 38 24 -39 24 -38 3 77 -12 65 -17 168 -19 365 -2 151
-8 297 -14 325 -15 71 -69 164 -119 202 -53 41 -126 63 -210 63 -78 0 -135 14
-161 40 -34 34 -47 159 -69 710 -6 162 -9 180 -35 236 -31 69 -103 145 -157
168 -35 14 -182 37 -224 35 -11 -1 -41 -5 -67 -9z m57 -40 c10 -11 16 -22 14
-24 -5 -5 -89 32 -89 39 0 14 60 2 75 -15z m-125 -38 c0 -10 -45 -32 -65 -32
-20 0 -19 10 3 26 19 15 62 19 62 6z m39 -31 c13 -8 13 -12 1 -26 -28 -33 -80
-39 -80 -9 0 14 38 44 55 44 5 0 16 -4 24 -9z m87 -18 c-8 -8 -36 5 -36 17 0
7 6 7 21 0 11 -7 18 -14 15 -17z m-212 -12 c9 -14 -33 -61 -55 -61 -24 0 -24
11 2 44 21 26 43 34 53 17z m202 -35 c3 -8 0 -24 -6 -36 -9 -16 -19 -20 -43
-18 -57 5 -44 68 15 68 16 0 31 -6 34 -14z m-306 -4 c0 -11 -22 -32 -32 -32
-5 0 -4 9 2 20 11 20 30 28 30 12z m170 -52 c0 -21 -35 -50 -62 -50 -24 0 -39
30 -26 53 21 40 88 38 88 -3z m335 0 c3 -5 1 -10 -4 -10 -6 0 -11 5 -11 10 0
6 2 10 4 10 3 0 8 -4 11 -10z m185 -31 c0 -35 -2 -40 -17 -34 -42 18 -65 17
-92 -3 -30 -22 -51 -14 -51 17 0 13 2 13 16 -1 15 -15 19 -13 54 23 25 26 46
39 63 39 25 0 27 -3 27 -41z m-650 -5 c0 -8 -4 -12 -10 -9 -5 3 -10 13 -10 21
0 8 5 12 10 9 6 -3 10 -13 10 -21z m210 -9 c0 -1 -18 -14 -41 -29 l-41 -27 4
23 c3 24 42 49 64 41 8 -3 14 -6 14 -8z m-246 -34 c-9 -10 -26 18 -18 30 5 9
9 8 14 -7 4 -10 6 -21 4 -23z m106 -21 c0 -13 -11 -13 -30 0 -12 8 -11 10 8
10 12 0 22 -4 22 -10z m506 1 c5 -5 18 -11 29 -14 11 -3 4 -5 -17 -6 -35 -1
-54 9 -41 23 9 8 17 8 29 -3z m-561 -40 c3 -5 1 -12 -5 -16 -5 -3 -10 1 -10 9
0 18 6 21 15 7z m-65 -10 c0 -13 -26 -32 -33 -24 -14 13 -6 33 13 33 11 0 20
-4 20 -9z m-24 -78 c-7 -7 -26 7 -26 19 0 6 6 6 15 -2 9 -7 13 -15 11 -17z
m382 -5 c29 -29 -3 -78 -50 -78 -28 0 -37 13 -18 25 6 3 10 12 10 18 0 7 -4 6
-10 -3 -5 -8 -13 -11 -17 -6 -4 4 0 13 10 20 9 7 17 18 17 25 0 15 43 14 58
-1z m-308 -8 c0 -5 -5 -10 -11 -10 -5 0 -7 5 -4 10 3 6 8 10 11 10 2 0 4 -4 4
-10z m60 -19 c0 -5 3 -17 7 -27 6 -15 4 -15 -14 2 -20 19 -21 34 -2 34 5 0 9
-4 9 -9z m600 -37 c17 -44 12 -53 -35 -65 -40 -10 -45 -14 -45 -40 0 -16 -5
-29 -11 -29 -21 0 -1 70 33 116 18 24 36 44 41 44 4 0 12 -12 17 -26z m-233 0
c3 -8 1 -27 -6 -40 -9 -21 -17 -25 -44 -22 -59 6 -46 78 15 78 17 0 31 -6 35
-16z m-277 -49 c18 -19 21 -28 12 -37 -13 -13 -62 14 -62 36 0 33 20 33 50 1z
m151 -31 c11 -13 11 -20 -1 -42 -19 -33 -40 -40 -40 -13 0 12 -6 20 -12 19 -7
-2 -13 3 -12 10 1 6 2 19 3 27 2 20 45 19 62 -1z m113 -32 c6 -10 -48 -72 -62
-72 -28 0 -19 62 10 73 21 8 46 8 52 -1z m-184 -33 c0 -11 -4 -17 -10 -14 -5
3 -10 15 -10 26 0 11 5 17 10 14 6 -3 10 -15 10 -26z m-75 -19 c3 -5 -3 -10
-14 -10 -11 0 -23 5 -26 10 -3 6 3 10 14 10 11 0 23 -4 26 -10z m-70 -40 c0
-13 -5 -25 -11 -27 -14 -5 -25 22 -17 42 8 23 28 12 28 -15z m74 -3 c-2 -1
-13 -9 -24 -17 -19 -14 -19 -14 -6 3 7 9 18 17 24 17 6 0 8 -1 6 -3z m507 -61
c19 -14 19 -15 0 -50 -10 -20 -27 -43 -37 -52 -17 -15 -20 -15 -43 0 -31 20
-50 52 -42 72 6 16 60 43 87 44 8 0 24 -6 35 -14z m-426 -75 c0 -10 -24 -21
-43 -21 -7 0 -3 7 7 15 22 17 36 19 36 6z m59 -29 c7 -14 6 -25 -6 -42 l-16
-23 -9 23 c-6 18 -11 20 -22 11 -11 -9 -16 -9 -21 0 -8 12 11 29 33 29 6 0 12
5 12 10 0 17 19 11 29 -8z m-112 -44 c-3 -8 -6 -5 -6 6 -1 11 2 17 5 13 3 -3
4 -12 1 -19z m-87 -108 c-8 -5 -22 -9 -30 -9 -10 0 -8 3 5 9 27 12 43 12 25 0z
m535 -95 c26 -6 65 -47 83 -88 2 -4 -14 -15 -35 -24 -48 -20 -192 -21 -247 -2
-72 26 -73 60 -5 108 30 21 42 22 104 17 39 -3 84 -8 100 -11z m-901 -60 c-3
-8 -29 -29 -57 -48 -80 -52 -81 -52 -68 -31 19 34 46 61 76 77 38 20 56 21 49
2z m300 -41 c21 -55 -11 -146 -64 -184 -26 -19 -34 -20 -65 -10 -84 28 -120
107 -70 154 47 44 187 72 199 40z m-759 -26 c22 -26 26 -39 21 -67 -6 -39 -37
-71 -68 -71 -33 0 -78 54 -78 92 0 80 74 107 125 46z m1811 -14 c38 -18 74
-69 74 -105 0 -24 -65 -99 -86 -99 -13 0 -104 178 -104 204 0 22 70 22 116 0z
m-808 -16 c15 -13 16 -35 1 -43 -13 -9 -45 20 -52 46 -4 17 -2 19 16 13 12 -3
28 -11 35 -16z m-1302 -23 c31 -48 -16 -125 -87 -140 -39 -9 -59 9 -59 52 0
45 14 70 53 93 43 27 73 25 93 -5z m-330 -60 c3 -14 3 -37 0 -51 -8 -32 -49
-74 -72 -74 -14 0 -16 8 -12 52 4 40 11 57 32 75 34 29 44 29 52 -2z m2043 -1
c-32 -35 -95 -64 -139 -63 -44 0 -106 21 -103 34 3 20 126 54 197 55 l69 0
-24 -26z m-2349 -67 c0 -33 -23 -91 -40 -102 -6 -4 -17 -2 -23 4 -13 13 4 88
30 127 19 29 33 17 33 -29z m124 17 c3 -9 6 -23 6 -32 -1 -15 -3 -14 -15 2
-17 22 -20 46 -6 46 5 0 12 -7 15 -16z m986 -8 c0 -3 -4 -16 -10 -30 -8 -21
-16 -26 -46 -26 -28 0 -35 -3 -30 -15 7 -18 -24 -21 -42 -3 -26 26 35 77 96
78 17 0 32 -2 32 -4z m1418 -21 c14 -31 15 -62 3 -70 -13 -7 -17 2 -26 53 -8
47 5 56 23 17z m-2697 -31 c5 -15 7 -30 3 -33 -7 -7 -34 28 -34 46 0 23 20 14
31 -13z m-115 -25 c11 -31 15 -34 60 -39 l49 -5 -28 -19 c-15 -10 -44 -19 -65
-20 -34 -1 -37 1 -35 27 1 22 -2 27 -23 27 -28 0 -29 2 -8 41 19 37 35 33 50
-12z m1489 31 c3 -5 1 -10 -4 -10 -6 0 -11 5 -11 10 0 6 2 10 4 10 3 0 8 -4
11 -10z m-351 -6 c20 -8 21 -38 1 -54 -11 -9 -19 -7 -40 14 -14 14 -23 31 -20
36 7 11 35 13 59 4z m2056 -35 c0 -21 -40 -29 -75 -15 -42 18 -45 33 -7 38 31
4 82 -10 82 -23z m-1069 -5 c57 -23 99 -83 99 -142 0 -38 -5 -50 -33 -76 -48
-45 -91 -56 -150 -39 -87 25 -128 114 -89 195 36 74 92 94 173 62z m-2318 -4
c35 0 37 -33 5 -68 l-23 -24 28 7 c15 4 134 2 265 -4 229 -12 239 -11 296 8
49 17 65 19 95 10 38 -11 65 -6 179 36 33 11 52 13 85 5 62 -14 253 -12 402 5
72 8 151 15 178 15 46 0 47 -1 47 -30 0 -16 -22 -72 -50 -125 -27 -52 -55
-116 -60 -142 -6 -25 -33 -94 -59 -152 -27 -58 -57 -131 -66 -161 -21 -66 -30
-84 -108 -223 l-60 -108 -18 42 c-38 83 -223 285 -298 324 -19 9 -66 47 -105
84 -82 77 -160 135 -196 146 -50 15 -116 54 -180 105 -73 59 -200 125 -260
135 -67 11 -125 -16 -236 -109 -54 -46 -99 -84 -100 -83 -1 1 -4 16 -7 33 -5
28 -3 32 35 49 33 14 45 27 61 66 21 50 48 68 106 70 25 1 25 1 -4 8 -47 12
-75 30 -75 49 0 30 22 44 60 38 19 -3 47 -6 63 -6z m1800 -22 c20 -6 37 -17
37 -25 0 -14 -77 -68 -114 -79 -28 -9 -48 22 -45 71 1 22 4 44 7 48 5 9 53 3
115 -15z m1307 -10 c20 -7 22 -11 10 -18 -22 -14 -48 -12 -75 6 -52 34 -12 41
65 12z m-3395 -33 c-42 -36 -60 -44 -53 -22 4 11 75 57 88 56 3 0 -13 -15 -35
-34z m1915 6 c5 -11 10 -35 10 -54 0 -29 -4 -36 -26 -41 -33 -9 -64 1 -64 20
0 26 40 94 55 94 8 0 19 -9 25 -19z m1128 3 c41 -8 99 -61 83 -77 -17 -17
-109 -12 -156 7 -40 17 -85 53 -85 68 0 9 113 11 158 2z m435 -34 c-3 -11 -10
-23 -16 -27 -7 -4 -8 0 -4 11 4 10 7 24 7 32 0 9 4 13 9 10 5 -3 7 -15 4 -26z
m-3378 -52 c-10 -31 -25 -45 -57 -53 -25 -6 -28 -4 -28 18 0 28 33 56 68 56
20 1 22 -3 17 -21z m3435 -18 c-33 -26 -52 -25 -21 0 13 11 28 20 35 20 6 0 0
-9 -14 -20z m-3206 -35 c24 -26 36 -65 36 -115 0 -32 -61 -154 -93 -187 -22
-22 -22 -22 -62 -4 -49 23 -65 48 -72 116 -7 70 9 115 62 170 53 54 92 60 129
20z m-476 -61 c-3 -19 -34 -41 -43 -32 -4 3 -2 16 5 27 13 25 43 28 38 5z
m2110 -42 c6 -57 -64 -94 -112 -59 -16 12 -17 16 -5 35 15 24 87 64 104 59 6
-2 11 -18 13 -35z m1640 4 c19 -19 -71 -52 -113 -42 -31 8 -25 23 19 42 27 12
81 12 94 0z m-643 -56 c-27 -12 -35 -12 -35 0 0 6 12 10 28 9 24 0 25 -1 7 -9z
m-828 -62 c-3 -8 -6 -5 -6 6 -1 11 2 17 5 13 3 -3 4 -12 1 -19z m1324 -117
c32 -107 -84 -138 -127 -34 -20 46 -15 78 11 78 16 0 19 -6 17 -30 l-3 -30 20
31 c34 55 63 50 82 -15z m-479 18 c29 -15 38 -28 38 -56 0 -29 -61 -97 -117
-130 -37 -22 -48 -24 -69 -14 -33 15 -64 84 -64 143 0 81 1 82 101 75 48 -3
98 -11 111 -18z m-1017 -21 c18 -8 22 -14 13 -20 -17 -10 -118 -10 -118 0 0
30 58 42 105 20z m464 -14 c-30 -33 -78 -54 -124 -54 -39 0 -44 9 -17 33 28
26 84 46 126 47 l39 0 -24 -26z m-1573 -29 c28 -52 36 -112 19 -145 -34 -65
-124 -111 -178 -91 -77 29 -48 213 41 261 57 30 92 23 118 -25z m-826 20 c0
-24 -27 -72 -45 -78 -23 -9 -19 49 5 73 24 24 40 26 40 5z m189 -136 c1 -28
-41 -75 -58 -64 -22 13 -12 75 16 103 25 25 27 25 34 7 4 -11 8 -32 8 -46z
m198 46 c12 -9 25 -31 29 -50 3 -19 12 -40 20 -46 12 -10 12 -14 -3 -25 -10
-7 -25 -14 -34 -14 -18 0 -39 40 -39 75 0 14 -9 30 -19 37 -15 9 -17 15 -9 25
14 17 29 16 55 -2z m2217 -20 c5 -22 4 -26 -4 -15 -5 8 -10 24 -10 34 0 26 6
18 14 -19z m-2295 1 c9 -11 9 -15 0 -18 -7 -2 27 -56 79 -124 73 -97 103 -128
160 -166 75 -50 115 -94 134 -149 6 -19 62 -87 129 -159 156 -167 174 -189
157 -195 -7 -2 -58 -16 -113 -29 -55 -14 -127 -35 -159 -46 -33 -12 -91 -25
-130 -30 -78 -8 -190 -47 -238 -81 -27 -19 -35 -21 -62 -11 -43 16 -51 15 -36
-3 15 -18 13 -18 -31 -3 -34 12 -34 12 -9 19 l25 7 -25 1 c-17 1 -31 11 -42
29 -12 20 -59 51 -155 101 -113 60 -149 85 -198 136 -47 50 -70 66 -105 74
-50 13 -110 40 -110 51 0 4 55 35 123 70 189 97 333 197 414 287 110 122 133
159 133 210 0 39 2 43 24 43 13 0 29 -6 35 -14z m2121 -45 c6 -22 8 -58 4 -80
-6 -38 -9 -41 -38 -41 -37 0 -103 17 -110 29 -13 21 93 127 131 131 1 0 7 -18
13 -39z m-1242 7 c-5 -15 -78 -24 -78 -9 0 12 18 19 53 20 19 1 27 -3 25 -11z
m779 1 c64 -24 106 -94 88 -148 -7 -23 -37 -27 -79 -11 -55 21 -156 135 -141
160 8 13 96 13 132 -1z m-327 -17 c0 -14 -53 -80 -83 -103 -53 -40 -45 -8 20
79 22 29 63 45 63 24z m-1835 -52 c-3 -5 -12 -10 -18 -10 -7 0 -6 4 3 10 19
12 23 12 15 0z m1960 -43 c30 -53 33 -106 5 -138 l-20 -24 -30 33 c-21 23 -30
42 -30 67 0 35 28 105 41 105 5 0 20 -20 34 -43z m-1620 23 c-3 -5 -13 -10
-21 -10 -8 0 -12 5 -9 10 3 6 13 10 21 10 8 0 12 -4 9 -10z m1175 -41 c15 -27
-2 -72 -36 -94 -39 -25 -46 -20 -39 28 13 77 51 111 75 66z m2155 7 c23 -10
37 -24 41 -41 15 -59 -50 -109 -106 -80 -47 24 -54 72 -15 110 28 29 34 30 80
11z m-2362 -75 c10 -17 14 -31 8 -31 -11 0 -61 58 -61 71 0 18 34 -8 53 -40z
m-1490 7 c29 -15 44 -34 68 -86 25 -54 14 -97 -37 -142 -40 -35 -63 -37 -120
-11 -86 39 -110 169 -43 226 34 28 94 34 132 13z m390 1 c22 -12 37 -28 37
-41 0 -11 -38 -10 -59 2 -14 7 -25 2 -51 -25 -33 -35 -62 -43 -89 -26 -15 10
-3 40 32 79 23 25 92 31 130 11z m3711 -41 c31 -13 40 -38 32 -84 -11 -56 -87
-80 -133 -42 -32 26 -5 110 41 128 29 12 31 12 60 -2z m-1404 -17 c0 -5 -16
-21 -35 -35 l-35 -27 0 29 c0 16 3 32 7 35 10 10 63 8 63 -2z m-755 -21 c3 -6
-1 -7 -9 -4 -18 7 -21 14 -7 14 6 0 13 -4 16 -10z m-637 -15 c49 -20 77 -68
90 -155 5 -36 8 -68 5 -72 -12 -21 -47 -1 -115 65 -85 83 -102 123 -68 157 24
24 38 25 88 5z m-118 -70 c7 -8 8 -15 2 -15 -5 0 -15 7 -22 15 -7 8 -8 15 -2
15 5 0 15 -7 22 -15z m569 -25 c-6 -16 -15 -30 -20 -30 -13 0 -11 13 7 38 21
30 25 28 13 -8z m765 14 c3 -9 6 -30 6 -47 l-1 -32 -14 25 c-16 28 -20 70 -6
70 5 0 12 -7 15 -16z m-548 -58 c13 -34 -67 -129 -120 -142 -28 -7 -28 -6 -21
27 11 53 38 92 75 111 42 22 59 23 66 4z m1942 -2 c44 -31 20 -106 -41 -127
-37 -14 -77 36 -77 94 0 45 72 65 118 33z m-1611 -4 c16 0 42 -17 74 -48 40
-37 51 -56 56 -87 5 -39 3 -42 -31 -60 -48 -26 -82 -13 -123 48 -47 70 -57
168 -16 153 8 -3 26 -6 40 -6z m-518 -66 l-13 -29 -4 27 c-2 15 3 37 10 50 12
22 13 22 16 2 1 -11 -3 -34 -9 -50z m989 53 c8 -10 7 -21 -4 -43 -30 -60 -80
-79 -139 -52 -29 13 -30 16 -9 46 33 47 128 78 152 49z m-1449 -125 c56 -35
77 -64 58 -81 -11 -9 -25 -4 -62 22 -26 18 -60 48 -74 66 l-26 34 30 -7 c17
-4 50 -19 74 -34z m791 24 c0 -8 3 -23 6 -33 5 -16 4 -16 -10 1 -18 22 -21 46
-6 46 6 0 10 -6 10 -14z m-2414 -11 c-11 -8 -25 -15 -30 -15 -6 1 0 7 14 15
32 19 40 18 16 0z m4449 9 c19 -8 45 -55 45 -82 0 -58 -102 -69 -147 -17 -29
34 -29 46 3 79 26 25 64 33 99 20z m-4310 -94 c4 -6 1 -18 -6 -26 -10 -12 -9
-18 4 -31 11 -12 13 -22 6 -39 -7 -19 -5 -27 10 -35 11 -8 16 -20 13 -35 -3
-15 3 -27 16 -35 10 -7 18 -19 15 -28 -2 -11 13 -24 49 -41 29 -14 67 -35 83
-47 17 -11 62 -38 100 -58 39 -20 61 -33 50 -30 -47 15 -163 31 -181 24 -11
-3 -73 -2 -139 5 -88 8 -158 8 -265 0 -166 -13 -160 -11 -141 -23 18 -12 -4
-17 -102 -26 -37 -3 -79 -10 -93 -15 -14 -6 -46 -10 -72 -10 l-47 0 35 24 c42
28 135 71 172 80 15 3 55 -1 90 -9 91 -21 149 -20 177 6 28 26 23 41 -17 53
-44 12 -40 32 12 64 37 23 45 33 49 67 5 31 1 45 -14 61 -17 18 -29 57 -13 41
4 -4 25 8 47 25 47 38 148 61 162 38z m1702 -45 c1 -25 -2 -45 -7 -45 -4 0
-15 -3 -23 -6 -25 -9 -28 26 -6 62 11 19 24 34 27 34 4 0 8 -20 9 -45z m-1587
15 c22 -22 25 -36 10 -45 -5 -3 -10 -17 -10 -29 0 -27 -24 -51 -40 -41 -5 3
-10 17 -10 30 0 13 -5 27 -10 30 -8 5 -7 11 1 21 6 7 9 20 6 28 -5 13 5 23 26
25 4 1 16 -8 27 -19z m2055 9 c24 -6 51 -19 59 -28 15 -16 15 -19 -3 -35 -26
-24 -175 -12 -203 16 -23 23 -17 35 25 47 44 13 71 13 122 0z m-1865 -43 c13
-47 8 -66 -16 -66 -7 0 -31 -16 -53 -35 -41 -37 -51 -35 -65 12 -10 32 11 100
37 118 12 8 36 15 53 15 29 0 32 -4 44 -44z m-686 -13 c-26 -65 -94 -106 -73
-44 12 34 55 81 75 81 10 0 10 -8 -2 -37z m2233 5 c-3 -8 -6 -5 -6 6 -1 11 2
17 5 13 3 -3 4 -12 1 -19z m1017 -7 c34 -37 -6 -71 -54 -46 -37 19 -45 32 -30
50 17 21 64 19 84 -4z m-729 -31 c17 -7 15 -9 -12 -9 -18 -1 -33 4 -33 9 0 12
17 12 45 0z m1991 -45 c15 -23 12 -45 -6 -45 -9 0 -50 71 -50 85 0 12 41 -17
56 -40z m-1625 -42 c37 -44 -6 -185 -76 -253 l-33 -32 -15 28 c-17 33 -35 117
-39 184 -3 42 -1 45 37 67 48 27 107 30 126 6z m-899 -20 c37 -33 17 -52 -49
-45 -39 5 -41 14 -11 42 26 24 36 25 60 3z m2742 -24 c39 -31 52 -70 30 -86
-32 -23 -73 -16 -110 21 -41 41 -42 51 -6 70 37 21 55 20 86 -5z m-3820 -25
c27 -10 18 -20 -40 -49 -33 -16 -63 -40 -74 -58 l-19 -31 -11 28 c-19 51 -9
80 35 104 22 12 84 16 109 6z m-1104 -28 c0 -20 -12 -28 -76 -55 -75 -31 -102
-33 -123 -7 -9 10 -3 19 26 39 52 35 80 46 131 46 38 1 42 -1 42 -23z m266 11
c8 -7 -8 -37 -20 -37 -6 0 -24 12 -41 26 l-30 25 43 -5 c24 -2 46 -6 48 -9z
m2046 -74 c62 -65 67 -84 28 -117 -38 -32 -69 -40 -117 -33 -50 8 -65 27 -71
86 -4 46 -2 53 26 81 45 45 77 41 134 -17z m1065 35 c31 -40 17 -137 -23 -159
-43 -22 -59 -3 -62 75 -2 41 2 73 9 82 14 17 63 18 76 2z m-2239 -15 c-2 -9
-25 -23 -57 -34 -47 -16 -52 -17 -40 -2 18 21 70 53 87 53 8 0 12 -7 10 -17z
m392 5 c0 -7 -7 -22 -15 -32 -14 -19 -15 -19 -15 5 0 14 3 29 7 32 10 11 23 8
23 -5z m-596 -34 c4 -10 1 -14 -6 -12 -15 5 -23 28 -10 28 5 0 13 -7 16 -16z
m454 -43 c6 -41 -15 -48 -48 -16 -39 38 -38 47 8 43 30 -2 38 -7 40 -27z
m-423 -11 c3 -6 -1 -7 -9 -4 -18 7 -21 14 -7 14 6 0 13 -4 16 -10z m1795 -41
c6 -22 7 -46 3 -54 -8 -13 -11 -13 -31 1 -24 16 -29 53 -11 85 14 26 26 16 39
-32z m-1518 24 c-6 -3 -9 -10 -6 -15 4 -7 2 -8 -5 -4 -9 6 -9 11 0 22 6 8 15
12 18 8 3 -4 0 -9 -7 -11z m603 -34 c24 -6 52 -20 62 -31 18 -20 18 -21 -3
-10 -12 6 -47 13 -78 14 -31 2 -56 4 -56 5 0 1 3 8 6 17 7 19 12 19 69 5z
m1171 -15 c-4 -9 -9 -15 -11 -12 -3 3 -3 13 1 22 4 9 9 15 11 12 3 -3 3 -13
-1 -22z m1974 -4 c-36 -12 -72 -12 -65 0 3 6 25 10 48 9 36 -1 38 -2 17 -9z
m-2414 -76 c44 -20 90 -40 104 -46 l24 -9 -30 -20 c-30 -18 -35 -19 -105 -4
-85 18 -101 32 -88 78 5 18 9 33 9 34 0 6 10 2 86 -33z m-633 -23 c9 -1 17 -8
17 -17 0 -17 -12 -17 -127 8 -76 16 -65 25 20 17 39 -4 80 -8 90 -8z m3265
-13 c3 -15 -4 -18 -32 -18 -34 0 -47 15 -29 34 13 13 58 1 61 -16z m-3698 -17
c0 -11 -15 -26 -26 -28 -7 -1 -10 5 -7 16 4 16 33 26 33 12z m1660 -11 c12 -7
12 -12 -4 -29 -22 -24 -39 -27 -55 -7 -27 32 20 61 59 36z m-1542 -15 c3 -3
-1 -5 -9 -6 -8 0 -24 -2 -36 -3 -13 -2 -23 3 -23 10 0 12 56 12 68 -1z m1165
-20 c-3 -9 -8 -14 -10 -11 -3 3 -2 9 2 15 9 16 15 13 8 -4z m-1105 -26 c9 -14
5 -15 -26 -13 -21 1 -56 4 -78 5 -31 2 -41 6 -37 16 8 21 128 14 141 -8z
m1200 -7 c4 -13 -37 -26 -65 -20 -15 3 -13 7 12 21 32 17 47 17 53 -1z"/>
<path d="M8117 2659 c7 -7 15 -10 18 -7 3 3 -2 9 -12 12 -14 6 -15 5 -6 -5z"/>
<path d="M6240 5918 c-11 -18 -25 -51 -31 -73 -21 -81 -27 -89 -104 -128 -41
-22 -75 -45 -75 -53 0 -12 4 -12 21 -4 11 7 23 9 26 6 3 -3 14 -1 24 5 16 8
19 6 19 -11 0 -11 5 -20 12 -20 20 0 68 52 68 74 0 10 3 17 6 13 7 -6 23 5 60
42 25 25 32 67 13 73 -6 2 -11 26 -11 56 1 29 -1 52 -4 52 -2 0 -13 -15 -24
-32z"/>
<path d="M5280 5501 c-5 -11 -10 -31 -10 -45 0 -14 -9 -40 -19 -57 -14 -22
-17 -38 -11 -49 6 -12 0 -23 -26 -44 -29 -23 -35 -33 -32 -59 3 -28 7 -32 35
-35 25 -2 31 -7 27 -20 -3 -9 6 -4 19 12 l25 29 -11 -42 c-8 -30 -8 -44 0 -52
16 -16 62 31 70 71 4 21 10 29 20 26 7 -3 21 4 31 16 17 20 31 35 72 71 50 43
5 63 -65 27 -45 -23 -49 -24 -40 -10 3 5 0 7 -9 4 -12 -4 -14 7 -15 61 0 91
-34 145 -61 96z"/>
<path d="M6010 5421 c-5 -11 -10 -26 -10 -34 0 -8 -7 -20 -15 -27 -8 -7 -15
-22 -15 -34 0 -17 -6 -21 -32 -21 -29 0 -33 -4 -36 -29 -4 -31 30 -76 57 -76
14 0 14 -1 1 -10 -8 -5 -10 -10 -4 -10 6 0 9 -13 6 -30 -10 -66 57 -107 84
-52 7 15 13 19 16 11 2 -7 22 -14 44 -15 21 -2 50 -4 63 -6 13 -2 26 2 28 8 5
16 -62 79 -106 99 -46 20 -52 35 -44 125 8 101 -10 151 -37 101z"/>
<path d="M1225 5136 c-18 -13 -18 -19 -8 -62 16 -66 59 -191 80 -231 10 -18
30 -42 45 -53 27 -20 28 -22 13 -50 -19 -37 -19 -57 1 -111 8 -24 22 -92 30
-151 8 -59 18 -118 23 -131 8 -20 0 -34 -53 -99 -33 -42 -69 -90 -78 -107 -10
-18 -32 -39 -49 -49 -17 -9 -51 -30 -75 -47 -224 -156 -284 -201 -284 -217 0
-28 -21 -67 -45 -82 -12 -8 -42 -17 -67 -21 -36 -5 -58 -19 -118 -72 -41 -36
-103 -85 -139 -108 -73 -46 -120 -95 -152 -157 -44 -86 -34 -224 22 -291 36
-44 153 -104 220 -113 27 -4 48 -9 45 -11 -2 -3 -46 -8 -98 -13 -95 -8 -167
-28 -138 -37 8 -3 22 -14 30 -24 13 -16 37 -21 135 -30 66 -5 158 -15 205 -21
101 -13 158 -13 304 -3 95 7 111 6 121 -8 10 -14 50 -17 291 -22 351 -7 555
-20 697 -45 62 -10 191 -28 287 -40 350 -43 568 -71 720 -95 148 -23 236 -32
520 -55 129 -11 273 -4 248 11 -8 6 -1 9 23 9 22 0 42 7 51 18 29 32 97 172
118 241 l20 68 48 -3 c94 -7 168 -15 207 -25 22 -5 141 -11 265 -13 129 -2
242 -8 265 -14 47 -14 235 -41 351 -51 44 -4 86 -11 93 -16 47 -29 295 -36
411 -12 41 8 100 17 130 20 30 3 73 10 95 16 22 6 62 11 89 11 87 0 163 21
175 47 6 13 18 23 26 23 14 0 14 2 0 23 -8 13 -13 26 -10 29 13 12 -118 37
-212 40 -88 3 -103 5 -103 20 0 9 -12 30 -26 47 -33 39 -26 61 18 60 18 -1 25
-3 16 -6 -45 -11 -7 -60 50 -65 45 -4 47 -2 33 35 -14 35 14 45 45 16 21 -20
23 -20 54 -4 27 14 31 21 26 42 -4 14 -3 22 3 19 5 -3 22 -3 39 0 27 6 30 10
28 40 -2 21 2 35 11 38 23 9 45 7 38 -3 -3 -5 0 -13 7 -17 8 -5 4 -10 -11 -15
-21 -8 -21 -10 -6 -39 8 -16 17 -30 18 -30 7 0 79 40 92 50 8 6 19 9 24 5 6
-3 22 2 35 11 25 15 26 15 37 -10 16 -34 27 -33 71 10 23 21 52 38 73 41 19 3
35 6 35 7 0 1 -4 16 -9 33 -8 28 -7 33 10 38 21 7 23 13 9 35 -6 9 -5 17 3 22
8 5 5 14 -11 31 -21 22 -28 24 -63 16 -25 -6 -47 -6 -59 1 -37 20 -154 6 -171
-21 -4 -7 -28 -11 -55 -10 -62 1 -106 -8 -98 -20 3 -6 0 -16 -6 -24 -7 -8 -9
-15 -4 -15 5 0 2 -5 -7 -10 -11 -6 -15 -18 -11 -37 l5 -28 -35 33 c-20 19 -42
33 -49 32 -31 -5 -60 1 -54 10 3 5 -6 12 -20 16 -34 8 -28 24 21 52 30 17 48
21 78 17 38 -6 39 -5 23 13 -9 10 -17 26 -17 35 0 9 -6 17 -12 17 -8 1 -6 6 4
14 10 7 15 16 11 19 -3 4 1 7 10 7 24 0 21 16 -5 35 -23 16 -23 16 -4 30 11 8
17 16 13 16 -4 1 -11 2 -17 3 -5 0 -9 6 -7 11 4 17 51 5 69 -18 16 -21 17 -21
54 -4 l37 18 -43 44 c-24 25 -41 47 -38 51 4 3 25 8 48 11 35 5 41 9 37 25 -4
13 1 22 16 28 21 9 21 9 -3 11 -14 0 -33 0 -44 -1 -11 -1 -15 3 -12 9 4 6 16
11 27 11 10 0 19 5 19 10 0 6 -11 8 -25 4 -20 -5 -24 -3 -19 10 8 20 39 29 70
22 27 -7 99 3 89 12 -3 3 3 14 12 25 18 19 17 20 -22 13 -22 -4 -44 -12 -50
-17 -10 -10 -45 -12 -45 -3 0 4 8 13 18 20 16 12 16 13 -3 8 -11 -3 -31 -1
-45 5 -14 5 -18 10 -10 11 8 0 -7 13 -34 29 l-50 30 -27 -20 c-29 -20 -59 -25
-59 -9 0 6 9 10 20 10 11 0 19 5 17 12 -1 7 3 12 10 13 6 0 14 3 18 6 3 4 25
4 48 1 l41 -5 -22 34 c-19 30 -26 34 -66 34 -45 0 -61 7 -61 28 0 7 -18 15
-40 18 -22 3 -32 7 -22 8 9 0 17 5 17 10 0 5 3 17 7 26 5 14 2 16 -16 10 -15
-5 -27 -1 -39 14 -14 16 -24 18 -57 12 -38 -6 -39 -8 -18 -19 12 -7 32 -12 45
-12 23 -1 23 -1 3 -16 -16 -13 -39 -14 -120 -10 -62 4 -92 3 -80 -3 12 -5 27
-16 34 -25 12 -14 10 -15 -16 -5 -20 6 -38 7 -56 0 -17 -7 -28 -7 -32 -1 -4 6
-2 10 3 10 5 0 18 12 27 27 l17 26 -33 -6 c-19 -3 -50 -9 -69 -12 l-35 -7 25
21 25 21 -27 0 c-22 0 -82 -21 -107 -37 -2 -1 1 -8 7 -16 9 -10 2 -16 -33 -25
-26 -7 -45 -18 -45 -26 0 -16 -32 -26 -61 -19 -19 5 -18 8 13 40 l33 35 -47
-28 c-26 -15 -44 -32 -41 -36 2 -5 -1 -15 -7 -23 -6 -8 -9 -19 -5 -26 7 -10
-40 -58 -57 -59 -4 0 -5 14 -1 31 l6 31 -39 -20 c-21 -11 -58 -28 -82 -38 -24
-10 -47 -25 -53 -35 -13 -25 -11 -29 8 -22 10 4 14 2 9 -5 -3 -6 1 -15 10 -20
14 -8 6 -13 -37 -30 -33 -12 -55 -27 -58 -37 -2 -13 1 -16 13 -11 9 3 23 9 31
12 11 4 13 2 9 -9 -4 -12 8 -10 56 10 47 19 65 22 74 13 8 -8 6 -15 -8 -26
-19 -13 -17 -14 16 -14 54 0 56 -29 7 -79 -26 -25 -37 -44 -33 -55 7 -17 31
-14 92 11 17 7 32 10 32 7 0 -4 6 -2 13 4 10 9 17 7 29 -7 15 -17 14 -20 -5
-40 -14 -13 -21 -34 -22 -60 -1 -36 2 -40 24 -43 22 -2 17 -7 -28 -23 -35 -13
-56 -27 -62 -42 -5 -13 -13 -23 -19 -23 -5 0 -9 -3 -9 -7 4 -22 -3 -33 -20
-33 -11 0 -26 -7 -35 -15 -8 -8 -26 -15 -40 -15 -14 0 -26 -4 -26 -10 0 -5 13
-10 29 -10 39 0 81 -16 81 -32 0 -6 -12 -25 -27 -40 -36 -38 -22 -36 17 2 17
17 36 30 43 30 7 0 1 -9 -13 -20 -24 -19 -24 -21 -7 -34 18 -14 17 -15 -10
-29 -15 -8 -58 -17 -95 -21 -111 -11 -123 -21 -45 -36 38 -7 71 -10 74 -6 4 3
14 -1 24 -10 16 -14 19 -14 42 1 l25 16 -10 -38 -9 -38 -112 -1 c-127 -1 -217
-11 -259 -28 -35 -15 -61 -59 -45 -75 8 -8 6 -11 -6 -11 -10 0 -20 -7 -23 -15
-10 -24 -52 -17 -114 19 -32 19 -61 32 -64 29 -3 -4 -6 -3 -6 1 0 15 24 52 62
99 38 45 40 49 33 98 -4 27 -11 62 -15 77 -8 25 -8 25 -9 -10 -1 -50 -19 -49
-66 4 l-38 41 27 24 c34 29 53 29 61 2 4 -11 9 -18 12 -16 2 3 -7 34 -22 69
-15 34 -42 101 -62 148 -19 47 -42 91 -50 97 -11 8 -17 31 -18 65 -1 29 -5 63
-9 75 -7 22 -92 83 -117 83 -8 1 -21 17 -31 36 -13 28 -13 34 -2 30 15 -6 36
56 27 80 -4 10 2 17 15 21 37 9 38 43 4 72 -44 36 -62 96 -50 162 8 44 6 61
-12 110 -12 32 -29 64 -36 70 -8 6 -21 27 -30 45 -8 18 -33 44 -55 58 -42 28
-54 32 -43 14 4 -7 3 -8 -5 -4 -6 4 -9 11 -6 15 6 10 -62 37 -133 52 -72 15
-254 -4 -299 -32 -96 -59 -164 -218 -144 -336 11 -66 22 -89 69 -152 38 -50
40 -55 24 -67 -12 -9 -35 -11 -74 -7 -53 5 -106 0 -362 -39 -47 -7 -94 -24
-150 -53 -44 -23 -101 -46 -126 -50 -60 -9 -135 -60 -201 -136 -76 -88 -131
-139 -150 -139 -9 0 -47 22 -85 48 -118 82 -135 90 -279 122 -157 35 -215 35
-284 0 -26 -13 -68 -23 -112 -25 -42 -3 -109 -18 -165 -37 -52 -17 -96 -29
-99 -26 -3 3 2 21 10 41 20 48 19 50 -10 22 -35 -36 -60 -32 -91 14 l-26 40
23 30 c13 17 30 31 40 31 25 0 69 -39 69 -61 0 -12 4 -17 11 -13 17 10 2 166
-22 238 -20 57 -20 59 -2 80 45 50 45 52 7 48 -34 -4 -35 -3 -25 16 10 18 77
50 86 40 1 -1 10 -20 18 -40 17 -39 40 -50 51 -22 11 30 6 71 -19 144 -35 102
-33 152 11 263 30 74 37 107 39 167 1 41 6 87 13 102 13 30 1 88 -23 108 -23
19 -60 8 -63 -19 -2 -14 -19 -43 -37 -66 -19 -22 -39 -62 -45 -88 -7 -26 -16
-47 -20 -47 -9 0 -36 80 -45 135 -3 22 -19 65 -36 95 -16 30 -38 74 -49 98
-18 39 -28 46 -56 43 -7 -1 -14 5 -18 14 -3 8 -16 15 -30 15 -14 0 -27 4 -30
8 -3 5 -28 9 -56 10 -38 1 -50 -3 -50 -14 0 -13 -3 -13 -22 0 -28 20 -39 20
-63 2z m194 -62 c1 -1 -9 -18 -23 -37 -26 -34 -81 -66 -93 -53 -9 9 28 85 46
96 14 8 58 4 70 -6z m121 -85 c13 -23 13 -69 0 -69 -5 0 -10 1 -10 3 0 1 -7
23 -14 49 -13 41 -13 46 0 41 8 -3 19 -14 24 -24z m-156 -105 c25 -10 19 -26
-6 -19 -31 10 -47 25 -26 25 9 0 23 -3 32 -6z m227 -173 c16 -16 29 -35 29
-43 -1 -17 -35 -58 -49 -58 -18 0 -41 44 -41 81 0 58 17 64 61 20z m122 -45
c13 -10 15 -19 9 -37 -9 -24 -9 -24 -26 8 -24 47 -19 56 17 29z m2245 -82 c35
-24 26 -31 -32 -23 -70 9 -98 18 -91 30 10 15 99 10 123 -7z m250 -62 c2 -7
-3 -12 -12 -12 -9 0 -16 7 -16 16 0 17 22 14 28 -4z m96 -19 c3 -7 0 -15 -6
-19 -13 -8 -51 34 -42 47 6 10 42 -10 48 -28z m-2564 -22 c-5 -10 -17 -22 -27
-25 -16 -6 -16 -6 0 12 9 10 17 24 17 31 0 7 5 9 10 6 7 -4 7 -12 0 -24z
m2000 -55 c0 -59 -15 -83 -26 -41 -8 31 3 95 16 95 6 0 10 -24 10 -54z m519
35 c16 -30 -11 -47 -33 -22 -10 11 -15 25 -11 30 10 17 33 13 44 -8z m-2799
-35 c0 -8 -8 -24 -18 -36 l-17 -22 -19 21 c-10 11 -16 27 -13 36 8 19 67 21
67 1z m2878 2 c14 -14 16 -28 2 -28 -5 0 -14 9 -20 20 -12 22 -1 27 18 8z
m-347 -35 c-24 -47 -58 -78 -93 -87 -31 -7 -39 7 -25 47 13 38 65 77 105 77
l32 0 -19 -37z m139 5 c0 -16 -3 -19 -11 -11 -6 6 -8 16 -5 22 11 17 16 13 16
-11z m-80 -17 c0 -10 -7 -21 -15 -25 -16 -6 -19 3 -9 28 8 22 24 20 24 -3z
m190 -6 c0 -10 -10 -15 -26 -15 -22 0 -25 2 -14 15 7 8 19 15 26 15 8 0 14 -7
14 -15z m91 -1 c12 -14 11 -16 -5 -13 -11 2 -21 10 -24 17 -5 17 13 15 29 -4z
m79 -55 c0 -16 -4 -29 -9 -29 -11 0 -24 48 -16 61 11 17 25 -1 25 -32z m-300
16 c0 -8 -9 -15 -20 -15 -20 0 -26 11 -13 23 12 13 33 7 33 -8z m-90 -20 c13
-16 6 -35 -15 -35 -18 0 -26 15 -19 34 8 20 18 20 34 1z m235 5 c-3 -5 -10
-10 -16 -10 -5 0 -9 5 -9 10 0 6 7 10 16 10 8 0 12 -4 9 -10z m-113 -22 c-7
-7 -12 -8 -12 -2 0 6 3 14 7 17 3 4 9 5 12 2 2 -3 -1 -11 -7 -17z m208 -8 c0
-5 -5 -10 -11 -10 -5 0 -7 5 -4 10 3 6 8 10 11 10 2 0 4 -4 4 -10z m-2610 -31
c0 -6 -4 -7 -10 -4 -5 3 -10 11 -10 16 0 6 5 7 10 4 6 -3 10 -11 10 -16z
m2494 -11 c12 -19 10 -23 -20 -32 -30 -9 -60 20 -43 41 15 18 49 13 63 -9z
m-154 -7 c13 -25 13 -41 0 -41 -5 0 -10 8 -10 18 0 11 -10 24 -22 30 l-23 11
22 0 c12 1 27 -8 33 -18z m-107 -5 c7 -19 -18 -40 -38 -32 -13 4 -14 10 -5 26
12 23 35 26 43 6z m34 -83 c-3 -10 -5 -4 -5 12 0 17 2 24 5 18 2 -7 2 -21 0
-30z m163 27 c0 -5 -5 -10 -11 -10 -5 0 -7 5 -4 10 3 6 8 10 11 10 2 0 4 -4 4
-10z m-359 -40 c14 -8 16 -15 10 -28 -5 -9 -12 -25 -15 -35 -9 -28 -30 -15
-37 24 -11 49 1 60 42 39z m349 -11 c0 -5 -7 -9 -15 -9 -15 0 -20 12 -9 23 8
8 24 -1 24 -14z m210 -39 c0 -21 -27 -29 -48 -14 -21 14 -21 16 -5 41 l17 25
18 -22 c10 -12 18 -26 18 -30z m95 0 c8 -13 -5 -13 -25 0 -13 8 -13 10 2 10 9
0 20 -4 23 -10z m-2930 -12 c30 -13 42 -50 29 -87 -8 -21 -17 -27 -47 -29
l-38 -3 6 53 c10 86 10 85 50 66z m2315 2 c0 -5 -2 -10 -4 -10 -3 0 -8 5 -11
10 -3 6 -1 10 4 10 6 0 11 -4 11 -10z m405 0 c8 -13 -13 -40 -31 -40 -17 0
-18 22 -2 38 15 15 25 15 33 2z m1485 -5 c15 -18 13 -20 -16 -29 -17 -5 -20
-2 -18 16 3 29 2 28 13 28 5 0 14 -7 21 -15z m-4380 -40 c-18 -22 -30 -18 -30
8 0 17 2 19 10 7 7 -12 10 -11 16 5 5 12 9 14 12 7 2 -7 -2 -19 -8 -27z m3070
-5 c0 -5 -2 -10 -4 -10 -3 0 -8 5 -11 10 -3 6 -1 10 4 10 6 0 11 -4 11 -10z
m-25 -10 c3 -5 1 -10 -4 -10 -6 0 -11 5 -11 10 0 6 2 10 4 10 3 0 8 -4 11 -10z
m1325 -4 c0 -2 -9 -6 -20 -9 -11 -3 -18 -1 -14 4 5 9 34 13 34 5z m-4280 -31
c0 -14 -4 -25 -10 -25 -5 0 -10 11 -10 25 0 14 5 25 10 25 6 0 10 -11 10 -25z
m4700 15 c0 -5 -4 -10 -10 -10 -5 0 -10 5 -10 10 0 6 5 10 10 10 6 0 10 -4 10
-10z m-2650 -10 c-8 -5 -31 -10 -50 -10 -26 0 -31 3 -20 10 8 5 31 10 50 10
26 0 31 -3 20 -10z m425 -50 c3 -5 2 -10 -4 -10 -5 0 -13 5 -16 10 -3 6 -2 10
4 10 5 0 13 -4 16 -10z m1378 -5 c-3 -9 -8 -14 -10 -11 -3 3 -2 9 2 15 9 16
15 13 8 -4z m-4117 -32 c54 -35 57 -79 9 -121 -81 -72 -200 -43 -229 55 -9 30
39 82 84 92 41 9 101 -3 136 -26z m3044 16 c0 -6 -4 -7 -10 -4 -5 3 -10 11
-10 16 0 6 5 7 10 4 6 -3 10 -11 10 -16z m1965 11 c3 -6 -5 -10 -19 -10 -14 0
-28 5 -31 10 -3 6 5 10 19 10 14 0 28 -4 31 -10z m-2100 -10 c-3 -5 -14 -10
-23 -10 -15 0 -15 2 -2 10 20 13 33 13 25 0z m-305 -36 c17 -15 29 -28 26 -31
-5 -5 -106 45 -106 52 0 15 53 1 80 -21z m560 4 c0 -12 -58 -10 -65 2 -4 6 8
9 29 8 20 -2 36 -6 36 -10z m-1095 -33 c66 -65 -8 -134 -142 -135 -41 0 -43 1
-43 29 0 38 38 83 93 110 54 27 63 26 92 -4z m347 -3 l47 -18 -46 -34 c-27
-20 -56 -54 -69 -79 -23 -46 -25 -46 -43 9 -13 40 -2 91 25 121 21 23 27 23
86 1z m1778 3 c-7 -8 -17 -15 -22 -15 -6 0 -5 7 2 15 7 8 17 15 22 15 6 0 5
-7 -2 -15z m-4020 -32 c0 -10 -42 -53 -52 -53 -5 0 -1 14 9 30 15 27 43 41 43
23z m3065 -34 c7 -21 -18 -59 -38 -59 -15 0 -47 31 -47 46 0 11 40 31 67 33 6
1 15 -8 18 -20z m975 -13 c0 -3 -4 -8 -10 -11 -5 -3 -10 -1 -10 4 0 6 5 11 10
11 6 0 10 -2 10 -4z m-3950 -55 c0 -14 11 -23 37 -32 l37 -12 -36 -18 c-28
-14 -42 -16 -74 -8 -49 13 -78 34 -69 49 9 15 63 39 88 40 10 0 17 -7 17 -19z
m1460 9 c0 -5 -13 -16 -30 -25 -35 -18 -41 -4 -8 19 26 18 38 20 38 6z m1180
1 c0 -4 -11 -6 -25 -3 -14 2 -25 6 -25 8 0 2 11 4 25 4 14 0 25 -4 25 -9z
m280 -31 c0 -5 -4 -10 -10 -10 -5 0 -10 5 -10 10 0 6 5 10 10 10 6 0 10 -4 10
-10z m1158 -13 c15 6 14 3 -2 -15 -21 -24 -46 -29 -46 -9 0 17 24 41 28 28 2
-5 11 -7 20 -4z m-3868 -7 c0 -5 -5 -10 -11 -10 -5 0 -7 5 -4 10 3 6 8 10 11
10 2 0 4 -4 4 -10z m380 -5 c10 -12 7 -15 -16 -21 -28 -7 -55 3 -62 24 -6 18
63 15 78 -3z m1682 -12 c31 -29 34 -49 14 -76 -13 -17 -17 -17 -77 3 -35 12
-68 25 -72 29 -4 5 4 22 18 40 35 40 77 42 117 4z m-1116 -15 c48 -31 49 -31
23 -38 -29 -8 -106 2 -119 16 -13 14 8 54 28 54 10 0 40 -14 68 -32z m-291 12
c25 -11 -1 -11 -35 0 -20 6 -21 8 -5 8 11 0 29 -3 40 -8z m-1101 -61 c-6 -53
-7 -54 -57 -77 -27 -12 -52 -20 -55 -17 -3 2 13 24 35 47 21 24 48 58 58 75
10 18 20 31 22 29 2 -2 1 -27 -3 -57z m1797 -14 c23 -41 46 -75 51 -75 4 0 8
-4 8 -10 0 -23 -33 -7 -104 50 -42 33 -76 64 -76 68 0 8 56 40 71 41 4 1 26
-33 50 -74z m115 44 c19 -22 19 -22 -3 -10 -24 12 -39 31 -25 31 5 0 17 -10
28 -21z m1309 -141 c7 -58 6 -59 -13 -49 -25 13 -111 109 -125 139 -6 12 -14
22 -19 22 -4 0 -8 4 -8 9 0 10 46 7 74 -5 15 -6 25 -1 40 20 l21 28 12 -52 c6
-29 14 -79 18 -112z m65 140 c-1 -22 -36 -75 -44 -67 -15 15 -16 58 -1 73 23
23 45 20 45 -6z m-462 -13 c14 -29 -2 -34 -18 -6 -12 24 -13 31 -2 31 5 0 14
-11 20 -25z m-2994 -17 c21 -29 20 -57 -1 -80 -21 -23 -133 -27 -133 -4 0 32
21 67 52 86 43 26 63 25 82 -2z m426 7 c0 -8 -9 -15 -19 -15 -11 0 -22 -4 -25
-9 -3 -5 -17 -11 -31 -13 -33 -7 -22 8 23 32 45 23 52 24 52 5z m898 -1 c36
-5 42 -8 42 -30 0 -13 -9 -33 -19 -43 -25 -25 -70 -15 -115 26 -67 61 -58 66
92 47z m-1003 -24 c-21 -23 -41 -26 -48 -6 -8 19 1 26 36 26 29 0 30 0 12 -20z
m3228 -12 c6 -23 1 -38 -13 -38 -12 0 -20 28 -14 45 9 22 21 18 27 -7z m-2063
8 c0 -3 -4 -8 -10 -11 -5 -3 -10 -1 -10 4 0 6 5 11 10 11 6 0 10 -2 10 -4z
m106 -86 c-11 -44 -24 -80 -29 -80 -10 0 -72 88 -72 103 0 15 74 57 101 57
l20 0 -20 -80z m906 25 c11 -20 11 -20 -11 0 -13 11 -28 29 -33 40 -11 20 -11
20 11 0 13 -11 28 -29 33 -40z m718 45 c0 -5 -2 -10 -4 -10 -3 0 -8 5 -11 10
-3 6 -1 10 4 10 6 0 11 -4 11 -10z m-3555 -22 c48 -22 23 -42 -67 -53 -49 -6
-58 -5 -58 8 0 45 71 70 125 45z m3925 -17 c15 -28 13 -33 -10 -21 -11 6 -20
17 -20 25 0 21 17 18 30 -4z m-791 -2 c34 -12 38 -21 16 -39 -12 -10 -21 -8
-50 10 -57 36 -37 54 34 29z m1671 -14 c0 -7 -82 -45 -95 -45 -23 0 -18 16 10
28 14 6 25 15 25 20 0 5 14 7 30 4 17 -2 30 -6 30 -7z m-3479 -22 c12 -32 -3
-96 -28 -125 -25 -28 -66 -40 -97 -28 -28 10 -28 11 -22 73 8 77 36 107 97
107 34 0 41 -4 50 -27z m876 7 c34 -20 70 -67 60 -76 -8 -9 -67 29 -101 65
-26 27 -27 31 -10 31 10 0 33 -9 51 -20z m-211 -59 c-15 -15 -16 -13 -4 19 9
26 13 30 16 16 2 -10 -3 -26 -12 -35z m742 42 c18 -4 20 -8 10 -14 -20 -13
-70 -10 -98 6 -24 14 -24 14 20 15 25 0 56 -3 68 -7z m847 -25 c-11 -37 -40
-73 -64 -76 -32 -5 -27 33 8 69 36 36 65 39 56 7z m-1416 -57 c102 -79 115
-120 49 -156 -29 -15 -42 -17 -65 -9 -38 13 -54 51 -61 147 -4 70 -3 80 9 71
8 -6 38 -30 68 -53z m1501 39 c6 -11 8 -20 6 -20 -3 0 -10 9 -16 20 -6 11 -8
20 -6 20 3 0 10 -9 16 -20z m153 4 c7 -8 -10 -44 -21 -44 -18 0 -45 28 -38 38
8 13 48 16 59 6z m-2853 -34 c0 -6 -7 -25 -17 -43 l-16 -32 -13 35 c-18 49
-17 50 16 50 17 0 30 -5 30 -10z m2260 1 c0 -5 -15 -51 -34 -102 -19 -52 -40
-115 -46 -141 -7 -27 -15 -47 -19 -47 -3 1 -35 32 -70 70 l-65 69 80 80 c71
72 83 80 117 80 20 0 37 -4 37 -9z m1670 5 c0 -3 -26 -21 -57 -40 -55 -35 -58
-35 -65 -16 -6 18 -11 19 -28 10 -18 -10 -80 -6 -80 5 0 16 15 35 27 35 8 0
11 -4 8 -10 -10 -16 108 -12 131 5 17 13 64 21 64 11z m-1573 -23 c-4 9 -2 17
3 17 21 0 1 -54 -29 -77 -19 -15 -71 -17 -71 -3 0 5 14 25 31 45 31 35 32 35
52 18 19 -17 20 -17 14 0z m-3487 0 c0 -5 -15 -20 -33 -34 -18 -14 -45 -51
-60 -82 -16 -30 -37 -63 -47 -72 -17 -15 -18 -14 -25 23 -14 85 28 154 100
165 52 7 65 7 65 0z m215 -3 c-3 -5 -11 -10 -16 -10 -6 0 -7 5 -4 10 3 6 11
10 16 10 6 0 7 -4 4 -10z m1765 -49 c-1 -12 -5 -11 -20 8 -11 13 -20 31 -20
40 1 12 5 11 20 -8 11 -13 20 -31 20 -40z m2840 49 c0 -5 -8 -10 -17 -10 -10
0 -29 -3 -43 -6 l-25 -5 25 15 c29 18 60 21 60 6z m-3851 -36 c6 -15 9 -29 7
-32 -7 -7 -35 17 -47 40 -8 14 -6 18 9 18 11 0 24 -12 31 -26z m604 -11 c-6
-46 -41 -123 -55 -123 -6 0 -7 11 -3 28 8 33 52 132 59 132 3 0 2 -17 -1 -37z
m1601 22 c3 -8 1 -15 -3 -15 -5 0 -11 7 -15 15 -3 8 -1 15 3 15 5 0 11 -7 15
-15z m-3065 -16 c57 -24 62 -36 29 -67 -56 -52 -120 -44 -126 15 -4 37 12 73
32 73 7 0 36 -10 65 -21z m649 -60 c-25 -16 -38 -9 -38 20 0 16 3 37 7 47 5
13 10 9 26 -21 15 -31 16 -39 5 -46z m5292 60 c0 -6 -4 -7 -10 -4 -5 3 -10 11
-10 16 0 6 5 7 10 4 6 -3 10 -11 10 -16z m-1195 1 c3 -5 1 -10 -4 -10 -6 0
-11 5 -11 10 0 6 2 10 4 10 3 0 8 -4 11 -10z m-4387 -32 c33 -28 59 -162 39
-195 -4 -7 -31 -17 -61 -24 -98 -22 -149 29 -128 128 23 110 83 146 150 91z
m1408 -76 c8 -25 14 -48 14 -52 0 -11 -89 -32 -101 -24 -13 7 -6 40 23 112 20
51 21 52 36 31 8 -11 21 -42 28 -67z m-176 34 c-6 -19 -18 -40 -26 -46 -23
-20 -18 32 7 64 27 34 34 27 19 -18z m2321 29 c0 -5 -9 -11 -21 -13 -15 -3
-18 1 -14 13 7 17 35 17 35 0z m-1291 -20 c13 -14 19 -25 14 -25 -12 0 -26 11
-43 33 -21 26 2 20 29 -8z m2340 21 c0 -3 -4 -8 -10 -11 -5 -3 -10 -1 -10 4 0
6 5 11 10 11 6 0 10 -2 10 -4z m-1500 -45 c-15 -30 -38 -43 -67 -39 l-28 3 38
39 c31 31 40 36 52 26 10 -8 12 -17 5 -29z m244 10 c25 -28 17 -72 -17 -91
-24 -13 -29 -13 -37 0 -14 21 -12 84 2 98 17 17 32 15 52 -7z m1026 -5 c0 -3
-4 -8 -10 -11 -5 -3 -10 -1 -10 4 0 6 5 11 10 11 6 0 10 -2 10 -4z m-2146 -67
l48 -61 -33 7 c-46 10 -76 30 -99 67 -22 36 -18 48 13 48 15 0 38 -20 71 -61z
m48 17 c4 -37 -1 -37 -39 -3 -31 27 -29 37 6 37 25 0 29 -4 33 -34z m2321 -13
c-3 -18 -9 -33 -14 -33 -5 0 -8 6 -6 12 1 7 -8 14 -20 16 -23 3 -23 3 4 28 31
29 43 21 36 -23z m-4153 12 c0 -14 -2 -25 -4 -25 -2 0 -6 11 -8 25 -3 14 -1
25 3 25 5 0 9 -11 9 -25z m2271 -1 l24 -26 -24 -19 c-14 -11 -39 -19 -62 -19
-35 0 -39 3 -39 24 0 24 41 66 65 66 6 0 22 -12 36 -26z m2083 18 c-17 -11
-26 -49 -14 -57 5 -3 10 -14 10 -24 0 -32 30 -80 45 -74 11 4 15 -3 15 -23 0
-18 -3 -24 -8 -17 -4 7 -22 13 -40 15 -34 2 -45 20 -57 90 -7 47 2 86 23 91
28 8 38 7 26 -1z m-414 -6 c0 -3 -4 -8 -10 -11 -5 -3 -10 -1 -10 4 0 6 5 11
10 11 6 0 10 -2 10 -4z m330 -23 c2 -2 6 -36 8 -74 l4 -70 -63 7 c-35 5 -74 8
-86 9 -13 0 -23 4 -23 9 0 4 -7 6 -15 2 -8 -3 -15 -1 -15 5 0 5 -11 7 -24 3
-13 -3 -27 -1 -30 4 -3 6 12 13 36 17 24 4 69 16 101 27 52 19 57 23 57 50 0
26 3 29 23 22 12 -3 24 -8 27 -11z m-1387 -108 c31 -21 57 -40 57 -42 0 -2
-54 -3 -120 -1 -82 2 -120 6 -120 14 0 6 7 31 15 54 8 23 15 54 15 67 0 24 1
24 48 -15 26 -21 73 -56 105 -77z m-63 90 c11 -13 10 -14 -4 -9 -9 3 -16 10
-16 15 0 13 6 11 20 -6z m226 -40 c7 -39 -7 -65 -37 -65 -27 0 -35 44 -15 75
23 36 44 31 52 -10z m-351 -13 c-15 -16 -16 -15 -4 12 7 15 15 23 17 16 3 -7
-3 -19 -13 -28z m-1477 -1 c15 -9 -31 -34 -85 -46 -37 -8 -44 7 -16 37 17 19
77 25 101 9z m1262 -9 c0 -14 -30 -52 -50 -62 -33 -17 -34 8 -1 40 28 29 51
39 51 22z m-1583 -26 c-3 -6 -11 -9 -18 -7 -8 2 -32 6 -54 9 l-40 6 35 6 c45
7 82 1 77 -14z m823 -23 l25 -5 -24 -9 c-29 -12 -75 -3 -91 16 -10 12 -5 13
27 9 21 -3 49 -8 63 -11z m2770 -36 c0 -20 -33 -16 -42 6 -4 9 -5 24 -1 33 5
13 8 12 24 -5 11 -11 19 -27 19 -34z m-3149 20 c26 -22 49 -57 49 -75 0 -5
-37 -1 -82 9 -46 9 -87 15 -91 12 -21 -13 15 37 40 56 35 26 52 26 84 -2z
m894 3 c3 -5 -1 -10 -9 -10 -8 0 -18 5 -21 10 -3 6 1 10 9 10 8 0 18 -4 21
-10z m-292 -62 c33 -55 149 -175 207 -215 25 -17 95 -58 155 -92 61 -33 106
-61 100 -61 -5 0 -93 22 -195 50 -102 27 -225 60 -274 72 -112 29 -134 54 -71
82 10 5 -27 41 -70 71 -12 8 -47 16 -79 17 -54 2 -56 3 -29 14 15 6 52 19 82
29 30 9 75 30 100 46 25 16 47 29 48 29 0 0 12 -19 26 -42z m557 -8 c-12 -8
-11 -10 5 -10 11 0 30 -7 41 -15 12 -8 24 -11 28 -8 3 3 6 1 6 -5 0 -21 -53
-53 -84 -50 -26 2 -32 8 -34 31 -4 29 21 67 42 67 6 0 4 -5 -4 -10z m-335 -46
c32 -21 32 -34 -1 -34 -33 0 -96 29 -88 41 9 15 63 10 89 -7z m244 -78 c7 -25
10 -50 6 -55 -9 -16 -57 -13 -83 5 -19 13 -20 19 -11 37 13 25 49 56 64 57 6
0 17 -20 24 -44z m-775 4 c14 -5 26 -14 26 -20 0 -11 -91 -14 -130 -3 -24 6
-23 7 10 19 44 16 62 17 94 4z m581 -101 l30 -32 -40 23 c-59 35 -103 69 -109
85 -8 21 83 -38 119 -76z m242 -55 c-3 -3 -12 -4 -19 -1 -8 3 -5 6 6 6 11 1
17 -2 13 -5z"/>
<path d="M6155 4130 c-4 -6 3 -10 14 -10 25 0 27 6 6 13 -8 4 -17 2 -20 -3z"/>
<path d="M6415 3955 c11 -9 19 -19 17 -23 -1 -4 9 -8 24 -10 14 -2 24 1 20 6
-3 5 6 7 22 4 24 -4 25 -3 12 11 -8 8 -37 18 -65 21 -47 6 -49 6 -30 -9z"/>
<path d="M6480 3856 c0 -2 7 -7 16 -10 8 -3 12 -2 9 4 -6 10 -25 14 -25 6z"/>
<path d="M5248 3727 c-27 -10 -35 -26 -22 -40 10 -9 86 32 79 43 -7 12 -21 11
-57 -3z"/>
<path d="M5168 3293 c-22 -3 -28 -10 -28 -29 0 -28 -2 -27 39 -13 20 7 31 18
31 30 0 10 -3 18 -7 18 -5 -1 -20 -4 -35 -6z"/>
<path d="M12270 2510 c19 -13 30 -13 30 0 0 6 -10 10 -22 10 -19 0 -20 -2 -8
-10z"/>
</g>
</svg>
